11/16/2015 11:32:24 pm Deployed branch:  Commit: 
11/19/2015 12:32:32 am Deployed branch: none Commit: 
11/21/2015 09:25:17 pm Deployed branch: none Commit: 
11/21/2015 09:25:26 pm Deployed branch: none Commit: 
11/21/2015 09:25:33 pm Deployed branch: none Commit: 
12/09/2015 09:14:32 pm Deployed branch: none Commit: 
12/11/2015 10:17:13 pm Deployed branch: none Commit: 
12/12/2015 12:17:45 am Deployed branch: none Commit: 
12/15/2015 09:26:18 pm Deployed branch: none Commit: 
12/15/2015 11:43:38 pm Deployed branch: none Commit: 
12/15/2015 11:43:41 pm Deployed branch: none Commit: 
12/15/2015 11:43:42 pm Deployed branch: none Commit: 
12/15/2015 11:43:42 pm Deployed branch: none Commit: 
12/15/2015 11:43:42 pm Deployed branch: none Commit: 
12/15/2015 11:43:42 pm Deployed branch: none Commit: 
12/15/2015 11:43:43 pm Deployed branch: none Commit: 
12/15/2015 11:43:43 pm Deployed branch: none Commit: 
12/15/2015 11:43:43 pm Deployed branch: none Commit: 
12/15/2015 11:43:43 pm Deployed branch: none Commit: 
12/15/2015 11:43:50 pm Deployed branch: none Commit: 
12/15/2015 11:43:52 pm Deployed branch: none Commit: 
12/15/2015 11:43:53 pm Deployed branch: none Commit: 
12/15/2015 11:43:53 pm Deployed branch: none Commit: 
12/16/2015 10:44:54 pm Deployed branch: none Commit: 
12/16/2015 10:44:55 pm Deployed branch: none Commit: 
12/16/2015 10:44:56 pm Deployed branch: none Commit: 
12/16/2015 10:44:57 pm Deployed branch: none Commit: 
12/16/2015 10:44:57 pm Deployed branch: none Commit: 
12/16/2015 10:44:57 pm Deployed branch: none Commit: 
12/16/2015 10:44:58 pm Deployed branch: none Commit: 
12/16/2015 10:45:06 pm Deployed branch: none Commit: 
12/16/2015 10:45:07 pm Deployed branch: none Commit: 
12/16/2015 10:56:29 pm Deployed branch: none Commit: 
12/16/2015 10:56:30 pm Deployed branch: none Commit: 
12/16/2015 10:56:38 pm Deployed branch: none Commit: 
12/16/2015 10:56:39 pm Deployed branch: none Commit: 
12/16/2015 10:56:39 pm Deployed branch: none Commit: 
12/16/2015 10:56:39 pm Deployed branch: none Commit: 
12/16/2015 10:56:39 pm Deployed branch: none Commit: 
12/16/2015 10:56:40 pm Deployed branch: none Commit: 
12/16/2015 10:56:41 pm Deployed branch: none Commit: 
12/16/2015 10:56:42 pm Deployed branch: none Commit: 
12/16/2015 10:56:43 pm Deployed branch: none Commit: 
12/16/2015 10:56:43 pm Deployed branch: none Commit: 
12/16/2015 10:56:43 pm Deployed branch: none Commit: 
12/16/2015 11:38:41 pm Deployed branch: none Commit: 
12/16/2015 11:38:42 pm Deployed branch: none Commit: 
12/16/2015 11:38:43 pm Deployed branch: none Commit: 
12/16/2015 11:38:43 pm Deployed branch: none Commit: 
12/16/2015 11:38:44 pm Deployed branch: none Commit: 
12/16/2015 11:38:45 pm Deployed branch: none Commit: 
12/16/2015 11:38:45 pm Deployed branch: none Commit: 
12/16/2015 11:38:45 pm Deployed branch: none Commit: 
12/16/2015 11:38:46 pm Deployed branch: none Commit: 
12/16/2015 11:38:46 pm Deployed branch: none Commit: 
12/16/2015 11:38:46 pm Deployed branch: none Commit: 
12/16/2015 11:38:46 pm Deployed branch: none Commit: 
12/17/2015 12:25:13 am Deployed branch: none Commit: 
12/17/2015 12:25:15 am Deployed branch: none Commit: 
12/18/2015 09:12:27 pm Deployed branch: none Commit: 
12/19/2015 02:00:11 pm Deployed branch: none Commit: 
12/20/2015 03:59:43 pm Deployed branch: none Commit: 
12/21/2015 12:42:58 am Deployed branch: none Commit: 
12/21/2015 11:45:43 pm Deployed branch: none Commit: 
12/21/2015 11:45:46 pm Deployed branch: none Commit: 
12/21/2015 11:45:47 pm Deployed branch: none Commit: 
12/21/2015 11:45:48 pm Deployed branch: none Commit: 
12/21/2015 11:45:49 pm Deployed branch: none Commit: 
12/21/2015 11:45:49 pm Deployed branch: none Commit: 
12/21/2015 11:45:49 pm Deployed branch: none Commit: 
12/21/2015 11:45:49 pm Deployed branch: none Commit: 
12/21/2015 11:45:50 pm Deployed branch: none Commit: 
12/21/2015 11:45:50 pm Deployed branch: none Commit: 
12/21/2015 11:45:50 pm Deployed branch: none Commit: 
12/21/2015 11:45:50 pm Deployed branch: none Commit: 
12/21/2015 11:45:50 pm Deployed branch: none Commit: 
12/21/2015 11:45:51 pm Deployed branch: none Commit: 
12/21/2015 11:45:58 pm Deployed branch: none Commit: 
12/21/2015 11:46:00 pm Deployed branch: none Commit: 
12/21/2015 11:46:01 pm Deployed branch: none Commit: 
12/22/2015 09:19:16 pm Deployed branch: none Commit: 
12/25/2015 10:23:53 pm Deployed branch: none Commit: 
12/25/2015 10:24:00 pm Deployed branch: none Commit: 
12/25/2015 10:24:02 pm Deployed branch: none Commit: 
12/25/2015 10:24:03 pm Deployed branch: none Commit: 
12/25/2015 10:24:04 pm Deployed branch: none Commit: 
12/25/2015 10:24:04 pm Deployed branch: none Commit: 
12/25/2015 10:24:05 pm Deployed branch: none Commit: 
12/25/2015 10:24:05 pm Deployed branch: none Commit: 
12/25/2015 10:24:05 pm Deployed branch: none Commit: 
12/25/2015 10:24:05 pm Deployed branch: none Commit: 
12/25/2015 10:24:06 pm Deployed branch: none Commit: 
12/26/2015 01:34:28 pm Deployed branch: none Commit: 
12/26/2015 01:44:07 pm Deployed branch: none Commit: 
12/26/2015 01:44:09 pm Deployed branch: none Commit: 
12/26/2015 01:44:09 pm Deployed branch: none Commit: 
12/26/2015 01:44:10 pm Deployed branch: none Commit: 
12/26/2015 01:44:10 pm Deployed branch: none Commit: 
12/26/2015 01:44:17 pm Deployed branch: none Commit: 
01/16/2016 02:26:34 am Deployed branch: none Commit: 
01/16/2016 12:04:00 pm Deployed branch: none Commit: 
01/16/2016 12:13:15 pm Deployed branch: none Commit: 
01/20/2016 11:47:32 pm Deployed branch: none Commit: 
01/28/2016 01:04:54 am Deployed branch: none Commit: 
01/28/2016 01:04:59 am Deployed branch: none Commit: 
01/28/2016 01:05:02 am Deployed branch: none Commit: 
01/28/2016 01:05:02 am Deployed branch: none Commit: 
01/28/2016 01:05:03 am Deployed branch: none Commit: 
01/28/2016 01:05:03 am Deployed branch: none Commit: 
01/28/2016 01:05:03 am Deployed branch: none Commit: 
01/28/2016 01:05:03 am Deployed branch: none Commit: 
01/28/2016 01:05:04 am Deployed branch: none Commit: 
02/07/2016 03:35:41 pm Deployed branch: none Commit: 
02/07/2016 03:35:43 pm Deployed branch: none Commit: 
02/07/2016 03:35:44 pm Deployed branch: none Commit: 
02/07/2016 03:35:51 pm Deployed branch: none Commit: 
02/07/2016 03:35:52 pm Deployed branch: none Commit: 
02/07/2016 03:35:52 pm Deployed branch: none Commit: 
02/07/2016 03:35:54 pm Deployed branch: none Commit: 
02/07/2016 03:35:58 pm Deployed branch: none Commit: 
02/07/2016 03:35:59 pm Deployed branch: none Commit: 
02/07/2016 03:35:59 pm Deployed branch: none Commit: 
02/07/2016 03:35:59 pm Deployed branch: none Commit: 
02/07/2016 03:35:59 pm Deployed branch: none Commit: 
02/07/2016 03:35:59 pm Deployed branch: none Commit: 
